[
    {
        "model": "auth.group",
        "fields": {
            "name": "readonly",
            "permissions": [
                8,
                16,
                12,
                20,
                28,
                32,
                24,
                4
            ]
        }
    }
]